%YAML 1.1
%TAG !u! tag:unity3d.com,2011:
--- !u!1045 &1
EditorBuildSettings:
  m_ObjectHideFlags: 0
  serializedVersion: 2
  m_Scenes:
  - enabled: 1
    path: Assets/Team/Cenas/principal.unity
    guid: 652faa62fa46e4146bfcb6fc3befe09a
  - enabled: 1
    path: Assets/Team/Cenas/controles.unity
    guid: f0e1b5c67aa489c42b86367ca24d238a
  - enabled: 1
    path: Assets/Team/Cenas/credito.unity
    guid: 4d45ed6c01322c04282fb1ce9768043a
  - enabled: 1
    path: Assets/Team/Cenas/jogo.unity
    guid: 2cda990e2423bbf4892e6590ba056729
  m_configObjects: {}
